FINAL DIGI/Nuevo4a2/simulation/qsim/Nuevo_4a2.msim.vcd
$comment
	File created using the following command:
		vcd file Nuevo_4a2.msim.vcd -direction
$end
$date
	Mon Dec 11 18:28:26 2023
$end
$version
	ModelSim Version 10.1d
$end
$timescale
	1ps
$end
$scope module Nuevo_4a2_vlg_vec_tst $end
$var reg 1 ! F0 $end
$var reg 1 " F1 $end
$var reg 1 # F2 $end
$var reg 1 $ F3 $end
$var wire 1 % Y1 $end
$var wire 1 & Y2 $end
$var wire 1 ' sampler $end
$scope module i1 $end
$var wire 1 ( gnd $end
$var wire 1 ) vcc $end
$var wire 1 * unknown $end
$var tri1 1 + devclrn $end
$var tri1 1 , devpor $end
$var tri1 1 - devoe $end
$var wire 1 . F0~input_o $end
$var wire 1 / Y1~output_o $end
$var wire 1 0 Y2~output_o $end
$var wire 1 1 F3~input_o $end
$var wire 1 2 F1~input_o $end
$var wire 1 3 inst~combout $end
$var wire 1 4 F2~input_o $end
$var wire 1 5 inst1~combout $end
$upscope $end
$upscope $end
$enddefinitions $end
#0
$dumpvars
0!
0"
0#
0$
0%
0&
x'
0(
1)
x*
1+
1,
1-
0.
0/
00
01
02
03
04
05
$end
#10000
1!
1.
0'
#60000
1"
0!
12
0.
1'
13
1/
1%
#110000
1#
0"
14
02
0'
15
03
10
0/
1&
0%
#160000
1$
0#
11
04
1'
13
1/
1%
#220000
1!
0$
1.
01
0'
05
03
00
0/
0&
0%
#280000
1"
0!
12
0.
1'
13
1/
1%
#340000
1#
0"
14
02
0'
15
03
10
0/
1&
0%
#400000
1$
0#
11
04
1'
13
1/
1%
#460000
0$
01
0'
05
03
00
0/
0&
0%
