FINAL DIGI/Maquina_estado/simulation/qsim/Maquina_estado.msim.vcd
$comment
	File created using the following command:
		vcd file Maquina_estado.msim.vcd -direction
$end
$date
	Tue Dec 12 09:54:15 2023
$end
$version
	ModelSim Version 10.1d
$end
$timescale
	1ps
$end
$scope module Maquina_estado_vlg_vec_tst $end
$var reg 1 ! CLK $end
$var reg 1 " EXE $end
$var reg 1 # T $end
$var wire 1 $ W0 $end
$var wire 1 % W1 $end
$var wire 1 & sampler $end
$scope module i1 $end
$var wire 1 ' gnd $end
$var wire 1 ( vcc $end
$var wire 1 ) unknown $end
$var tri1 1 * devclrn $end
$var tri1 1 + devpor $end
$var tri1 1 , devoe $end
$var wire 1 - W0~output_o $end
$var wire 1 . W1~output_o $end
$var wire 1 / CLK~input_o $end
$var wire 1 0 CLK~inputclkctrl_outclk $end
$var wire 1 1 T~input_o $end
$var wire 1 2 EXE~input_o $end
$var wire 1 3 inst5~0_combout $end
$var wire 1 4 inst1~q $end
$var wire 1 5 inst3~combout $end
$var wire 1 6 inst~q $end
$var wire 1 7 inst4~combout $end
$var wire 1 8 inst6~combout $end
$upscope $end
$upscope $end
$enddefinitions $end
#0
$dumpvars
0!
0"
1#
0$
0%
x&
0'
1(
x)
1*
1+
1,
0-
0.
0/
00
11
02
13
04
15
06
07
08
$end
#30000
1!
1"
1/
12
10
0&
05
03
16
14
18
1.
1%
#60000
0!
0/
00
1&
#90000
0"
1!
02
1/
10
0&
13
06
04
15
08
0.
0%
#120000
0!
0/
00
1&
#150000
1"
1!
12
1/
10
0&
05
03
16
14
18
1.
1%
#180000
0!
0/
00
1&
#210000
0"
1!
02
1/
10
0&
13
06
04
15
08
0.
0%
#240000
0!
0/
00
1&
#270000
1"
1!
12
1/
10
0&
05
03
16
14
18
1.
1%
#300000
0!
0/
00
1&
#330000
0"
1!
02
1/
10
0&
13
06
04
15
08
0.
0%
#360000
0!
0/
00
1&
#390000
1"
1!
12
1/
10
0&
05
03
16
14
18
1.
1%
#420000
0!
0/
00
1&
#450000
0"
1!
02
1/
10
0&
13
06
04
15
08
0.
0%
#480000
0!
0/
00
1&
#510000
1"
1!
12
1/
10
0&
05
03
16
14
18
1.
1%
#540000
0!
0/
00
1&
#570000
0"
1!
02
1/
10
0&
13
06
04
15
08
0.
0%
#600000
0!
0/
00
1&
#630000
1"
1!
12
1/
10
0&
05
03
16
14
18
1.
1%
#660000
0!
0/
00
1&
#690000
0"
1!
02
1/
10
0&
13
06
04
15
08
0.
0%
#720000
0!
0/
00
1&
#750000
1!
1/
10
0&
16
14
05
18
1.
1%
#780000
0!
0/
00
1&
#810000
1!
1/
10
0&
06
17
1-
1$
#840000
0!
0/
00
1&
#870000
1!
1/
10
0&
#900000
0!
0/
00
1&
#930000
1!
1/
10
0&
#960000
0!
0/
00
1&
#990000
1!
1/
10
0&
