FINAL DIGI/Comparador/simulation/qsim/Comparador.msim.vcd
$comment
	File created using the following command:
		vcd file Comparador.msim.vcd -direction
$end
$date
	Mon Dec 11 19:11:02 2023
$end
$version
	ModelSim Version 10.1d
$end
$timescale
	1ps
$end
$scope module Comparador_vlg_vec_tst $end
$var reg 1 ! B0 $end
$var reg 1 " B1 $end
$var reg 1 # B2 $end
$var reg 1 $ B3 $end
$var wire 1 % D0 $end
$var wire 1 & U0 $end
$var wire 1 ' U1 $end
$var wire 1 ( U2 $end
$var wire 1 ) U3 $end
$var wire 1 * sampler $end
$scope module i1 $end
$var wire 1 + gnd $end
$var wire 1 , vcc $end
$var wire 1 - unknown $end
$var tri1 1 . devclrn $end
$var tri1 1 / devpor $end
$var tri1 1 0 devoe $end
$var wire 1 1 U0~output_o $end
$var wire 1 2 U1~output_o $end
$var wire 1 3 U2~output_o $end
$var wire 1 4 U3~output_o $end
$var wire 1 5 D0~output_o $end
$var wire 1 6 B0~input_o $end
$var wire 1 7 B1~input_o $end
$var wire 1 8 B3~input_o $end
$var wire 1 9 B2~input_o $end
$var wire 1 : inst6~combout $end
$var wire 1 ; inst7~0_combout $end
$var wire 1 < inst5~combout $end
$var wire 1 = inst3~0_combout $end
$upscope $end
$upscope $end
$enddefinitions $end
#0
$dumpvars
0!
0"
0#
0$
0%
0&
0'
0(
0)
x*
0+
1,
x-
1.
1/
10
01
02
03
04
05
06
07
08
09
0:
0;
0<
0=
$end
#1000
1!
0*
16
11
1&
#2000
1"
0!
17
1*
06
01
0&
1:
12
1'
#3000
1!
0*
16
11
1&
#4000
1#
0"
0!
19
07
1*
06
01
0&
1;
0:
13
02
1(
0'
#5000
1!
0*
16
11
1&
#6000
1"
0!
17
1*
06
01
0&
1:
12
1'
#7000
1!
0*
16
11
1&
#8000
1$
0#
0"
0!
18
09
07
1*
06
01
0&
1<
0;
0:
14
03
02
1)
0(
0'
#9000
1!
0*
16
11
1&
#10000
1"
0!
17
1*
06
01
0&
1=
0<
15
04
1%
0)
#11000
1!
0*
16
11
1&
#12000
1#
0"
0!
19
07
1*
06
01
0&
1:
12
1'
#13000
1!
0*
16
11
1&
#14000
1"
0!
17
1*
06
01
0&
1;
0:
13
02
1(
0'
#15000
1!
0*
16
11
1&
#16000
0$
0#
0"
0!
08
09
07
1*
06
01
0&
0=
0;
05
03
0%
0(
#17000
1!
0*
16
11
1&
#18000
1"
0!
17
1*
06
01
0&
1:
12
1'
#19000
1!
0*
16
11
1&
#20000
1#
0"
0!
19
07
1*
06
01
0&
1;
0:
13
02
1(
0'
#21000
1!
0*
16
11
1&
#22000
1"
0!
17
1*
06
01
0&
1:
12
1'
#23000
1!
0*
16
11
1&
#24000
1$
0#
0"
0!
18
09
07
1*
06
01
0&
1<
0;
0:
14
03
02
1)
0(
0'
#25000
1!
0*
16
11
1&
#26000
1"
0!
17
1*
06
01
0&
1=
0<
15
04
1%
0)
#27000
1!
0*
16
11
1&
#28000
1#
0"
0!
19
07
1*
06
01
0&
1:
12
1'
#29000
1!
0*
16
11
1&
#30000
1"
0!
17
1*
06
01
0&
1;
0:
13
02
1(
0'
#31000
1!
0*
16
11
1&
#32000
0$
0#
0"
0!
08
09
07
1*
06
01
0&
0=
0;
05
03
0%
0(
#33000
1!
0*
16
11
1&
#34000
1"
0!
17
1*
06
01
0&
1:
12
1'
#35000
1!
0*
16
11
1&
#36000
1#
0"
0!
19
07
1*
06
01
0&
1;
0:
13
02
1(
0'
#37000
1!
0*
16
11
1&
#38000
1"
0!
17
1*
06
01
0&
1:
12
1'
#39000
1!
0*
16
11
1&
#40000
1$
0#
0"
0!
18
09
07
1*
06
01
0&
1<
0;
0:
14
03
02
1)
0(
0'
#41000
1!
0*
16
11
1&
#42000
1"
0!
17
1*
06
01
0&
1=
0<
15
04
1%
0)
#43000
1!
0*
16
11
1&
#44000
1#
0"
0!
19
07
1*
06
01
0&
1:
12
1'
#45000
1!
0*
16
11
1&
#46000
1"
0!
17
1*
06
01
0&
1;
0:
13
02
1(
0'
#47000
1!
0*
16
11
1&
#48000
0$
0#
0"
0!
08
09
07
1*
06
01
0&
0=
0;
05
03
0%
0(
#49000
1!
0*
16
11
1&
#50000
1"
0!
17
1*
06
01
0&
1:
12
1'
#51000
1!
0*
16
11
1&
#52000
1#
0"
0!
19
07
1*
06
01
0&
1;
0:
13
02
1(
0'
#53000
1!
0*
16
11
1&
#54000
1"
0!
17
1*
06
01
0&
1:
12
1'
#55000
1!
0*
16
11
1&
#56000
1$
0#
0"
0!
18
09
07
1*
06
01
0&
1<
0;
0:
14
03
02
1)
0(
0'
#57000
1!
0*
16
11
1&
#58000
1"
0!
17
1*
06
01
0&
1=
0<
15
04
1%
0)
#59000
1!
0*
16
11
1&
#60000
1#
0"
0!
19
07
1*
06
01
0&
1:
12
1'
#61000
1!
0*
16
11
1&
#62000
1"
0!
17
1*
06
01
0&
1;
0:
13
02
1(
0'
#63000
1!
0*
16
11
1&
#64000
0$
0#
0"
0!
08
09
07
1*
06
01
0&
0=
0;
05
03
0%
0(
#65000
1!
0*
16
11
1&
#66000
1"
0!
17
1*
06
01
0&
1:
12
1'
#67000
1!
0*
16
11
1&
#68000
1#
0"
0!
19
07
1*
06
01
0&
1;
0:
13
02
1(
0'
#69000
1!
0*
16
11
1&
#70000
1"
0!
17
1*
06
01
0&
1:
12
1'
#71000
1!
0*
16
11
1&
#72000
1$
0#
0"
0!
18
09
07
1*
06
01
0&
1<
0;
0:
14
03
02
1)
0(
0'
#73000
1!
0*
16
11
1&
#74000
1"
0!
17
1*
06
01
0&
1=
0<
15
04
1%
0)
#75000
1!
0*
16
11
1&
#76000
1#
0"
0!
19
07
1*
06
01
0&
1:
12
1'
#77000
1!
0*
16
11
1&
#78000
1"
0!
17
1*
06
01
0&
1;
0:
13
02
1(
0'
#79000
1!
0*
16
11
1&
#80000
0$
0#
0"
0!
08
09
07
1*
06
01
0&
0=
0;
05
03
0%
0(
#81000
1!
0*
16
11
1&
#82000
1"
0!
17
1*
06
01
0&
1:
12
1'
#83000
1!
0*
16
11
1&
#84000
1#
0"
0!
19
07
1*
06
01
0&
1;
0:
13
02
1(
0'
#85000
1!
0*
16
11
1&
#86000
1"
0!
17
1*
06
01
0&
1:
12
1'
#87000
1!
0*
16
11
1&
#88000
1$
0#
0"
0!
18
09
07
1*
06
01
0&
1<
0;
0:
14
03
02
1)
0(
0'
#89000
1!
0*
16
11
1&
#90000
1"
0!
17
1*
06
01
0&
1=
0<
15
04
1%
0)
#91000
1!
0*
16
11
1&
#92000
1#
0"
0!
19
07
1*
06
01
0&
1:
12
1'
#93000
1!
0*
16
11
1&
#94000
1"
0!
17
1*
06
01
0&
1;
0:
13
02
1(
0'
#95000
1!
0*
16
11
1&
#96000
0$
0#
0"
0!
08
09
07
1*
06
01
0&
0=
0;
05
03
0%
0(
#97000
1!
0*
16
11
1&
#98000
1"
0!
17
1*
06
01
0&
1:
12
1'
#99000
1!
0*
16
11
1&
#100000
1#
0"
0!
19
07
1*
06
01
0&
1;
0:
13
02
1(
0'
#101000
1!
0*
16
11
1&
#102000
1"
0!
17
1*
06
01
0&
1:
12
1'
#103000
1!
0*
16
11
1&
#104000
1$
0#
0"
0!
18
09
07
1*
06
01
0&
1<
0;
0:
14
03
02
1)
0(
0'
#105000
1!
0*
16
11
1&
#106000
1"
0!
17
1*
06
01
0&
1=
0<
15
04
1%
0)
#107000
1!
0*
16
11
1&
#108000
1#
0"
0!
19
07
1*
06
01
0&
1:
12
1'
#109000
1!
0*
16
11
1&
#110000
1"
0!
17
1*
06
01
0&
1;
0:
13
02
1(
0'
#111000
1!
0*
16
11
1&
#112000
0$
0#
0"
0!
08
09
07
1*
06
01
0&
0=
0;
05
03
0%
0(
#113000
1!
0*
16
11
1&
#114000
1"
0!
17
1*
06
01
0&
1:
12
1'
#115000
1!
0*
16
11
1&
#116000
1#
0"
0!
19
07
1*
06
01
0&
1;
0:
13
02
1(
0'
#117000
1!
0*
16
11
1&
#118000
1"
0!
17
1*
06
01
0&
1:
12
1'
#119000
1!
0*
16
11
1&
#120000
1$
0#
0"
0!
18
09
07
1*
06
01
0&
1<
0;
0:
14
03
02
1)
0(
0'
#121000
1!
0*
16
11
1&
#122000
1"
0!
17
1*
06
01
0&
1=
0<
15
04
1%
0)
#123000
1!
0*
16
11
1&
#124000
1#
0"
0!
19
07
1*
06
01
0&
1:
12
1'
#125000
1!
0*
16
11
1&
#126000
1"
0!
17
1*
06
01
0&
1;
0:
13
02
1(
0'
#127000
1!
0*
16
11
1&
#128000
0$
0#
0"
0!
08
09
07
1*
06
01
0&
0=
0;
05
03
0%
0(
#129000
1!
0*
16
11
1&
#130000
1"
0!
17
1*
06
01
0&
1:
12
1'
#131000
1!
0*
16
11
1&
#132000
1#
0"
0!
19
07
1*
06
01
0&
1;
0:
13
02
1(
0'
#133000
1!
0*
16
11
1&
#134000
1"
0!
17
1*
06
01
0&
1:
12
1'
#135000
1!
0*
16
11
1&
#136000
1$
0#
0"
0!
18
09
07
1*
06
01
0&
1<
0;
0:
14
03
02
1)
0(
0'
#137000
1!
0*
16
11
1&
#138000
1"
0!
17
1*
06
01
0&
1=
0<
15
04
1%
0)
#139000
1!
0*
16
11
1&
#140000
1#
0"
0!
19
07
1*
06
01
0&
1:
12
1'
#141000
1!
0*
16
11
1&
#142000
1"
0!
17
1*
06
01
0&
1;
0:
13
02
1(
0'
#143000
1!
0*
16
11
1&
#144000
0$
0#
0"
0!
08
09
07
1*
06
01
0&
0=
0;
05
03
0%
0(
#145000
1!
0*
16
11
1&
#146000
1"
0!
17
1*
06
01
0&
1:
12
1'
#147000
1!
0*
16
11
1&
#148000
1#
0"
0!
19
07
1*
06
01
0&
1;
0:
13
02
1(
0'
#149000
1!
0*
16
11
1&
#150000
1"
0!
17
1*
06
01
0&
1:
12
1'
#151000
1!
0*
16
11
1&
#152000
1$
0#
0"
0!
18
09
07
1*
06
01
0&
1<
0;
0:
14
03
02
1)
0(
0'
#153000
1!
0*
16
11
1&
#154000
1"
0!
17
1*
06
01
0&
1=
0<
15
04
1%
0)
#155000
1!
0*
16
11
1&
#156000
1#
0"
0!
19
07
1*
06
01
0&
1:
12
1'
#157000
1!
0*
16
11
1&
#158000
1"
0!
17
1*
06
01
0&
1;
0:
13
02
1(
0'
#159000
1!
0*
16
11
1&
#160000
0$
0#
0"
0!
08
09
07
1*
06
01
0&
0=
0;
05
03
0%
0(
#161000
1!
0*
16
11
1&
#162000
1"
0!
17
1*
06
01
0&
1:
12
1'
#163000
1!
0*
16
11
1&
#164000
1#
0"
0!
19
07
1*
06
01
0&
1;
0:
13
02
1(
0'
#165000
1!
0*
16
11
1&
#166000
1"
0!
17
1*
06
01
0&
1:
12
1'
#167000
1!
0*
16
11
1&
#168000
1$
0#
0"
0!
18
09
07
1*
06
01
0&
1<
0;
0:
14
03
02
1)
0(
0'
#169000
1!
0*
16
11
1&
#170000
1"
0!
17
1*
06
01
0&
1=
0<
15
04
1%
0)
#171000
1!
0*
16
11
1&
#172000
1#
0"
0!
19
07
1*
06
01
0&
1:
12
1'
#173000
1!
0*
16
11
1&
#174000
1"
0!
17
1*
06
01
0&
1;
0:
13
02
1(
0'
#175000
1!
0*
16
11
1&
#176000
0$
0#
0"
0!
08
09
07
1*
06
01
0&
0=
0;
05
03
0%
0(
#177000
1!
0*
16
11
1&
#178000
1"
0!
17
1*
06
01
0&
1:
12
1'
#179000
1!
0*
16
11
1&
#180000
1#
0"
0!
19
07
1*
06
01
0&
1;
0:
13
02
1(
0'
#181000
1!
0*
16
11
1&
#182000
1"
0!
17
1*
06
01
0&
1:
12
1'
#183000
1!
0*
16
11
1&
#184000
1$
0#
0"
0!
18
09
07
1*
06
01
0&
1<
0;
0:
14
03
02
1)
0(
0'
#185000
1!
0*
16
11
1&
#186000
1"
0!
17
1*
06
01
0&
1=
0<
15
04
1%
0)
#187000
1!
0*
16
11
1&
#188000
1#
0"
0!
19
07
1*
06
01
0&
1:
12
1'
#189000
1!
0*
16
11
1&
#190000
1"
0!
17
1*
06
01
0&
1;
0:
13
02
1(
0'
#191000
1!
0*
16
11
1&
#192000
0$
0#
0"
0!
08
09
07
1*
06
01
0&
0=
0;
05
03
0%
0(
#193000
1!
0*
16
11
1&
#194000
1"
0!
17
1*
06
01
0&
1:
12
1'
#195000
1!
0*
16
11
1&
#196000
1#
0"
0!
19
07
1*
06
01
0&
1;
0:
13
02
1(
0'
#197000
1!
0*
16
11
1&
#198000
1"
0!
17
1*
06
01
0&
1:
12
1'
#199000
1!
0*
16
11
1&
#200000
1$
0#
0"
0!
18
09
07
1*
06
01
0&
1<
0;
0:
14
03
02
1)
0(
0'
#201000
1!
0*
16
11
1&
#202000
1"
0!
17
1*
06
01
0&
1=
0<
15
04
1%
0)
#203000
1!
0*
16
11
1&
#204000
1#
0"
0!
19
07
1*
06
01
0&
1:
12
1'
#205000
1!
0*
16
11
1&
#206000
1"
0!
17
1*
06
01
0&
1;
0:
13
02
1(
0'
#207000
1!
0*
16
11
1&
#208000
0$
0#
0"
0!
08
09
07
1*
06
01
0&
0=
0;
05
03
0%
0(
#209000
1!
0*
16
11
1&
#210000
1"
0!
17
1*
06
01
0&
1:
12
1'
#211000
1!
0*
16
11
1&
#212000
1#
0"
0!
19
07
1*
06
01
0&
1;
0:
13
02
1(
0'
#213000
1!
0*
16
11
1&
#214000
1"
0!
17
1*
06
01
0&
1:
12
1'
#215000
1!
0*
16
11
1&
#216000
1$
0#
0"
0!
18
09
07
1*
06
01
0&
1<
0;
0:
14
03
02
1)
0(
0'
#217000
1!
0*
16
11
1&
#218000
1"
0!
17
1*
06
01
0&
1=
0<
15
04
1%
0)
#219000
1!
0*
16
11
1&
#220000
1#
0"
0!
19
07
1*
06
01
0&
1:
12
1'
#221000
1!
0*
16
11
1&
#222000
1"
0!
17
1*
06
01
0&
1;
0:
13
02
1(
0'
#223000
1!
0*
16
11
1&
#224000
0$
0#
0"
0!
08
09
07
1*
06
01
0&
0=
0;
05
03
0%
0(
#225000
1!
0*
16
11
1&
#226000
1"
0!
17
1*
06
01
0&
1:
12
1'
#227000
1!
0*
16
11
1&
#228000
1#
0"
0!
19
07
1*
06
01
0&
1;
0:
13
02
1(
0'
#229000
1!
0*
16
11
1&
#230000
1"
0!
17
1*
06
01
0&
1:
12
1'
#231000
1!
0*
16
11
1&
#232000
1$
0#
0"
0!
18
09
07
1*
06
01
0&
1<
0;
0:
14
03
02
1)
0(
0'
#233000
1!
0*
16
11
1&
#234000
1"
0!
17
1*
06
01
0&
1=
0<
15
04
1%
0)
#235000
1!
0*
16
11
1&
#236000
1#
0"
0!
19
07
1*
06
01
0&
1:
12
1'
#237000
1!
0*
16
11
1&
#238000
1"
0!
17
1*
06
01
0&
1;
0:
13
02
1(
0'
#239000
1!
0*
16
11
1&
#240000
0$
0#
0"
0!
08
09
07
1*
06
01
0&
0=
0;
05
03
0%
0(
#241000
1!
0*
16
11
1&
#242000
1"
0!
17
1*
06
01
0&
1:
12
1'
#243000
1!
0*
16
11
1&
#244000
1#
0"
0!
19
07
1*
06
01
0&
1;
0:
13
02
1(
0'
#245000
1!
0*
16
11
1&
#246000
1"
0!
17
1*
06
01
0&
1:
12
1'
#247000
1!
0*
16
11
1&
#248000
1$
0#
0"
0!
18
09
07
1*
06
01
0&
1<
0;
0:
14
03
02
1)
0(
0'
#249000
1!
0*
16
11
1&
#250000
1"
0!
17
1*
06
01
0&
1=
0<
15
04
1%
0)
#251000
1!
0*
16
11
1&
#252000
1#
0"
0!
19
07
1*
06
01
0&
1:
12
1'
#253000
1!
0*
16
11
1&
#254000
1"
0!
17
1*
06
01
0&
1;
0:
13
02
1(
0'
#255000
1!
0*
16
11
1&
#256000
0$
0#
0"
0!
08
09
07
1*
06
01
0&
0=
0;
05
03
0%
0(
#257000
1!
0*
16
11
1&
#258000
1"
0!
17
1*
06
01
0&
1:
12
1'
#259000
1!
0*
16
11
1&
#260000
1#
0"
0!
19
07
1*
06
01
0&
1;
0:
13
02
1(
0'
#261000
1!
0*
16
11
1&
#262000
1"
0!
17
1*
06
01
0&
1:
12
1'
#263000
1!
0*
16
11
1&
#264000
1$
0#
0"
0!
18
09
07
1*
06
01
0&
1<
0;
0:
14
03
02
1)
0(
0'
#265000
1!
0*
16
11
1&
#266000
1"
0!
17
1*
06
01
0&
1=
0<
15
04
1%
0)
#267000
1!
0*
16
11
1&
#268000
1#
0"
0!
19
07
1*
06
01
0&
1:
12
1'
#269000
1!
0*
16
11
1&
#270000
1"
0!
17
1*
06
01
0&
1;
0:
13
02
1(
0'
#271000
1!
0*
16
11
1&
#272000
0$
0#
0"
0!
08
09
07
1*
06
01
0&
0=
0;
05
03
0%
0(
#273000
1!
0*
16
11
1&
#274000
1"
0!
17
1*
06
01
0&
1:
12
1'
#275000
1!
0*
16
11
1&
#276000
1#
0"
0!
19
07
1*
06
01
0&
1;
0:
13
02
1(
0'
#277000
1!
0*
16
11
1&
#278000
1"
0!
17
1*
06
01
0&
1:
12
1'
#279000
1!
0*
16
11
1&
#280000
1$
0#
0"
0!
18
09
07
1*
06
01
0&
1<
0;
0:
14
03
02
1)
0(
0'
#281000
1!
0*
16
11
1&
#282000
1"
0!
17
1*
06
01
0&
1=
0<
15
04
1%
0)
#283000
1!
0*
16
11
1&
#284000
1#
0"
0!
19
07
1*
06
01
0&
1:
12
1'
#285000
1!
0*
16
11
1&
#286000
1"
0!
17
1*
06
01
0&
1;
0:
13
02
1(
0'
#287000
1!
0*
16
11
1&
#288000
0$
0#
0"
0!
08
09
07
1*
06
01
0&
0=
0;
05
03
0%
0(
#289000
1!
0*
16
11
1&
#290000
1"
0!
17
1*
06
01
0&
1:
12
1'
#291000
1!
0*
16
11
1&
#292000
1#
0"
0!
19
07
1*
06
01
0&
1;
0:
13
02
1(
0'
#293000
1!
0*
16
11
1&
#294000
1"
0!
17
1*
06
01
0&
1:
12
1'
#295000
1!
0*
16
11
1&
#296000
1$
0#
0"
0!
18
09
07
1*
06
01
0&
1<
0;
0:
14
03
02
1)
0(
0'
#297000
1!
0*
16
11
1&
#298000
1"
0!
17
1*
06
01
0&
1=
0<
15
04
1%
0)
#299000
1!
0*
16
11
1&
#300000
1#
0"
0!
19
07
1*
06
01
0&
1:
12
1'
#301000
1!
0*
16
11
1&
#302000
1"
0!
17
1*
06
01
0&
1;
0:
13
02
1(
0'
#303000
1!
0*
16
11
1&
#304000
0$
0#
0"
0!
08
09
07
1*
06
01
0&
0=
0;
05
03
0%
0(
#305000
1!
0*
16
11
1&
#306000
1"
0!
17
1*
06
01
0&
1:
12
1'
#307000
1!
0*
16
11
1&
#308000
1#
0"
0!
19
07
1*
06
01
0&
1;
0:
13
02
1(
0'
#309000
1!
0*
16
11
1&
#310000
1"
0!
17
1*
06
01
0&
1:
12
1'
#311000
1!
0*
16
11
1&
#312000
1$
0#
0"
0!
18
09
07
1*
06
01
0&
1<
0;
0:
14
03
02
1)
0(
0'
#313000
1!
0*
16
11
1&
#314000
1"
0!
17
1*
06
01
0&
1=
0<
15
04
1%
0)
#315000
1!
0*
16
11
1&
#316000
1#
0"
0!
19
07
1*
06
01
0&
1:
12
1'
#317000
1!
0*
16
11
1&
#318000
1"
0!
17
1*
06
01
0&
1;
0:
13
02
1(
0'
#319000
1!
0*
16
11
1&
#320000
0$
0#
0"
0!
08
09
07
1*
06
01
0&
0=
0;
05
03
0%
0(
#321000
1!
0*
16
11
1&
#322000
1"
0!
17
1*
06
01
0&
1:
12
1'
#323000
1!
0*
16
11
1&
#324000
1#
0"
0!
19
07
1*
06
01
0&
1;
0:
13
02
1(
0'
#325000
1!
0*
16
11
1&
#326000
1"
0!
17
1*
06
01
0&
1:
12
1'
#327000
1!
0*
16
11
1&
#328000
1$
0#
0"
0!
18
09
07
1*
06
01
0&
1<
0;
0:
14
03
02
1)
0(
0'
#329000
1!
0*
16
11
1&
#330000
1"
0!
17
1*
06
01
0&
1=
0<
15
04
1%
0)
#331000
1!
0*
16
11
1&
#332000
1#
0"
0!
19
07
1*
06
01
0&
1:
12
1'
#333000
1!
0*
16
11
1&
#334000
1"
0!
17
1*
06
01
0&
1;
0:
13
02
1(
0'
#335000
1!
0*
16
11
1&
#336000
0$
0#
0"
0!
08
09
07
1*
06
01
0&
0=
0;
05
03
0%
0(
#337000
1!
0*
16
11
1&
#338000
1"
0!
17
1*
06
01
0&
1:
12
1'
#339000
1!
0*
16
11
1&
#340000
1#
0"
0!
19
07
1*
06
01
0&
1;
0:
13
02
1(
0'
#341000
1!
0*
16
11
1&
#342000
1"
0!
17
1*
06
01
0&
1:
12
1'
#343000
1!
0*
16
11
1&
#344000
1$
0#
0"
0!
18
09
07
1*
06
01
0&
1<
0;
0:
14
03
02
1)
0(
0'
#345000
1!
0*
16
11
1&
#346000
1"
0!
17
1*
06
01
0&
1=
0<
15
04
1%
0)
#347000
1!
0*
16
11
1&
#348000
1#
0"
0!
19
07
1*
06
01
0&
1:
12
1'
#349000
1!
0*
16
11
1&
#350000
1"
0!
17
1*
06
01
0&
1;
0:
13
02
1(
0'
#351000
1!
0*
16
11
1&
#352000
0$
0#
0"
0!
08
09
07
1*
06
01
0&
0=
0;
05
03
0%
0(
#353000
1!
0*
16
11
1&
#354000
1"
0!
17
1*
06
01
0&
1:
12
1'
#355000
1!
0*
16
11
1&
#356000
1#
0"
0!
19
07
1*
06
01
0&
1;
0:
13
02
1(
0'
#357000
1!
0*
16
11
1&
#358000
1"
0!
17
1*
06
01
0&
1:
12
1'
#359000
1!
0*
16
11
1&
#360000
1$
0#
0"
0!
18
09
07
1*
06
01
0&
1<
0;
0:
14
03
02
1)
0(
0'
#361000
1!
0*
16
11
1&
#362000
1"
0!
17
1*
06
01
0&
1=
0<
15
04
1%
0)
#363000
1!
0*
16
11
1&
#364000
1#
0"
0!
19
07
1*
06
01
0&
1:
12
1'
#365000
1!
0*
16
11
1&
#366000
1"
0!
17
1*
06
01
0&
1;
0:
13
02
1(
0'
#367000
1!
0*
16
11
1&
#368000
0$
0#
0"
0!
08
09
07
1*
06
01
0&
0=
0;
05
03
0%
0(
#369000
1!
0*
16
11
1&
#370000
1"
0!
17
1*
06
01
0&
1:
12
1'
#371000
1!
0*
16
11
1&
#372000
1#
0"
0!
19
07
1*
06
01
0&
1;
0:
13
02
1(
0'
#373000
1!
0*
16
11
1&
#374000
1"
0!
17
1*
06
01
0&
1:
12
1'
#375000
1!
0*
16
11
1&
#376000
1$
0#
0"
0!
18
09
07
1*
06
01
0&
1<
0;
0:
14
03
02
1)
0(
0'
#377000
1!
0*
16
11
1&
#378000
1"
0!
17
1*
06
01
0&
1=
0<
15
04
1%
0)
#379000
1!
0*
16
11
1&
#380000
1#
0"
0!
19
07
1*
06
01
0&
1:
12
1'
#381000
1!
0*
16
11
1&
#382000
1"
0!
17
1*
06
01
0&
1;
0:
13
02
1(
0'
#383000
1!
0*
16
11
1&
#384000
0$
0#
0"
0!
08
09
07
1*
06
01
0&
0=
0;
05
03
0%
0(
#385000
1!
0*
16
11
1&
#386000
1"
0!
17
1*
06
01
0&
1:
12
1'
#387000
1!
0*
16
11
1&
#388000
1#
0"
0!
19
07
1*
06
01
0&
1;
0:
13
02
1(
0'
#389000
1!
0*
16
11
1&
#390000
1"
0!
17
1*
06
01
0&
1:
12
1'
#391000
1!
0*
16
11
1&
#392000
1$
0#
0"
0!
18
09
07
1*
06
01
0&
1<
0;
0:
14
03
02
1)
0(
0'
#393000
1!
0*
16
11
1&
#394000
1"
0!
17
1*
06
01
0&
1=
0<
15
04
1%
0)
#395000
1!
0*
16
11
1&
#396000
1#
0"
0!
19
07
1*
06
01
0&
1:
12
1'
#397000
1!
0*
16
11
1&
#398000
1"
0!
17
1*
06
01
0&
1;
0:
13
02
1(
0'
#399000
1!
0*
16
11
1&
#400000
0$
0#
0"
0!
08
09
07
1*
06
01
0&
0=
0;
05
03
0%
0(
#401000
1!
0*
16
11
1&
#402000
1"
0!
17
1*
06
01
0&
1:
12
1'
#403000
1!
0*
16
11
1&
#404000
1#
0"
0!
19
07
1*
06
01
0&
1;
0:
13
02
1(
0'
#405000
1!
0*
16
11
1&
#406000
1"
0!
17
1*
06
01
0&
1:
12
1'
#407000
1!
0*
16
11
1&
#408000
1$
0#
0"
0!
18
09
07
1*
06
01
0&
1<
0;
0:
14
03
02
1)
0(
0'
#409000
1!
0*
16
11
1&
#410000
1"
0!
17
1*
06
01
0&
1=
0<
15
04
1%
0)
#411000
1!
0*
16
11
1&
#412000
1#
0"
0!
19
07
1*
06
01
0&
1:
12
1'
#413000
1!
0*
16
11
1&
#414000
1"
0!
17
1*
06
01
0&
1;
0:
13
02
1(
0'
#415000
1!
0*
16
11
1&
#416000
0$
0#
0"
0!
08
09
07
1*
06
01
0&
0=
0;
05
03
0%
0(
#417000
1!
0*
16
11
1&
#418000
1"
0!
17
1*
06
01
0&
1:
12
1'
#419000
1!
0*
16
11
1&
#420000
1#
0"
0!
19
07
1*
06
01
0&
1;
0:
13
02
1(
0'
#421000
1!
0*
16
11
1&
#422000
1"
0!
17
1*
06
01
0&
1:
12
1'
#423000
1!
0*
16
11
1&
#424000
1$
0#
0"
0!
18
09
07
1*
06
01
0&
1<
0;
0:
14
03
02
1)
0(
0'
#425000
1!
0*
16
11
1&
#426000
1"
0!
17
1*
06
01
0&
1=
0<
15
04
1%
0)
#427000
1!
0*
16
11
1&
#428000
1#
0"
0!
19
07
1*
06
01
0&
1:
12
1'
#429000
1!
0*
16
11
1&
#430000
1"
0!
17
1*
06
01
0&
1;
0:
13
02
1(
0'
#431000
1!
0*
16
11
1&
#432000
0$
0#
0"
0!
08
09
07
1*
06
01
0&
0=
0;
05
03
0%
0(
#433000
1!
0*
16
11
1&
#434000
1"
0!
17
1*
06
01
0&
1:
12
1'
#435000
1!
0*
16
11
1&
#436000
1#
0"
0!
19
07
1*
06
01
0&
1;
0:
13
02
1(
0'
#437000
1!
0*
16
11
1&
#438000
1"
0!
17
1*
06
01
0&
1:
12
1'
#439000
1!
0*
16
11
1&
#440000
1$
0#
0"
0!
18
09
07
1*
06
01
0&
1<
0;
0:
14
03
02
1)
0(
0'
#441000
1!
0*
16
11
1&
#442000
1"
0!
17
1*
06
01
0&
1=
0<
15
04
1%
0)
#443000
1!
0*
16
11
1&
#444000
1#
0"
0!
19
07
1*
06
01
0&
1:
12
1'
#445000
1!
0*
16
11
1&
#446000
1"
0!
17
1*
06
01
0&
1;
0:
13
02
1(
0'
#447000
1!
0*
16
11
1&
#448000
0$
0#
0"
0!
08
09
07
1*
06
01
0&
0=
0;
05
03
0%
0(
#449000
1!
0*
16
11
1&
#450000
1"
0!
17
1*
06
01
0&
1:
12
1'
#451000
1!
0*
16
11
1&
#452000
1#
0"
0!
19
07
1*
06
01
0&
1;
0:
13
02
1(
0'
#453000
1!
0*
16
11
1&
#454000
1"
0!
17
1*
06
01
0&
1:
12
1'
#455000
1!
0*
16
11
1&
#456000
1$
0#
0"
0!
18
09
07
1*
06
01
0&
1<
0;
0:
14
03
02
1)
0(
0'
#457000
1!
0*
16
11
1&
#458000
1"
0!
17
1*
06
01
0&
1=
0<
15
04
1%
0)
#459000
1!
0*
16
11
1&
#460000
1#
0"
0!
19
07
1*
06
01
0&
1:
12
1'
#461000
1!
0*
16
11
1&
#462000
1"
0!
17
1*
06
01
0&
1;
0:
13
02
1(
0'
#463000
1!
0*
16
11
1&
#464000
0$
0#
0"
0!
08
09
07
1*
06
01
0&
0=
0;
05
03
0%
0(
#465000
1!
0*
16
11
1&
#466000
1"
0!
17
1*
06
01
0&
1:
12
1'
#467000
1!
0*
16
11
1&
#468000
1#
0"
0!
19
07
1*
06
01
0&
1;
0:
13
02
1(
0'
#469000
1!
0*
16
11
1&
#470000
1"
0!
17
1*
06
01
0&
1:
12
1'
#471000
1!
0*
16
11
1&
#472000
1$
0#
0"
0!
18
09
07
1*
06
01
0&
1<
0;
0:
14
03
02
1)
0(
0'
#473000
1!
0*
16
11
1&
#474000
1"
0!
17
1*
06
01
0&
1=
0<
15
04
1%
0)
#475000
1!
0*
16
11
1&
#476000
1#
0"
0!
19
07
1*
06
01
0&
1:
12
1'
#477000
1!
0*
16
11
1&
#478000
1"
0!
17
1*
06
01
0&
1;
0:
13
02
1(
0'
#479000
1!
0*
16
11
1&
#480000
0$
0#
0"
0!
08
09
07
1*
06
01
0&
0=
0;
05
03
0%
0(
#481000
1!
0*
16
11
1&
#482000
1"
0!
17
1*
06
01
0&
1:
12
1'
#483000
1!
0*
16
11
1&
#484000
1#
0"
0!
19
07
1*
06
01
0&
1;
0:
13
02
1(
0'
#485000
1!
0*
16
11
1&
#486000
1"
0!
17
1*
06
01
0&
1:
12
1'
#487000
1!
0*
16
11
1&
#488000
1$
0#
0"
0!
18
09
07
1*
06
01
0&
1<
0;
0:
14
03
02
1)
0(
0'
#489000
1!
0*
16
11
1&
#490000
1"
0!
17
1*
06
01
0&
1=
0<
15
04
1%
0)
#491000
1!
0*
16
11
1&
#492000
1#
0"
0!
19
07
1*
06
01
0&
1:
12
1'
#493000
1!
0*
16
11
1&
#494000
1"
0!
17
1*
06
01
0&
1;
0:
13
02
1(
0'
#495000
1!
0*
16
11
1&
#496000
0$
0#
0"
0!
08
09
07
1*
06
01
0&
0=
0;
05
03
0%
0(
#497000
1!
0*
16
11
1&
#498000
1"
0!
17
1*
06
01
0&
1:
12
1'
#499000
1!
0*
16
11
1&
#500000
1#
0"
0!
19
07
1*
06
01
0&
1;
0:
13
02
1(
0'
#501000
1!
0*
16
11
1&
#502000
1"
0!
17
1*
06
01
0&
1:
12
1'
#503000
1!
0*
16
11
1&
